…
## Unifrac equivalent trees
Here we're splitting up the tree into pieces

```r
broken_tree = break_tree(phy_tree(abt), t(otu_table(abt)))
## the number of trees in the forest
leaf_sizes = get_leaf_sizes(broken_tree)
leaf_sizes %>% group_by(n_leaves) %>% dplyr::summarise(n_trees = n())
```

```
## # A tibble: 42 x 2
##    n_leaves n_trees
##       <int>   <int>
##  1        1      49
##  2        2      18
##  3        3       6
##  4        4       9
##  5        5       5
##  6        6       3
##  7        7       2
##  8        8       6
##  9        9       3
## 10       10       3
## # … with 32 more rows
```
…
